Data Visualisation
…
# contiguous states / counties 
shape_us %>% 
  mutate(STATEFP = as.integer(STATEFP)) %>%
  filter(STATEFP < 57) %>% 
  filter(!(STATEFP %in% c(2,15))) ->
  shape_us

shape_us # 3,108 x 21

## Simple feature collection with 3108 features and 20 fields
## Geometry type: MULTIPOLYGON
## Dimension:     XY
## Bounding box:  xmin: -2356114 ymin: -1337505 xmax: 2258244 ymax: 1565791
## Projected CRS: USA_Contiguous_Albers_Equal_Area_Conic
## # A tibble: 3,108 × 21
##    GISJOIN  STATEFP COUNTYFP COUNTYNS GEOID NAME    NAMELSAD LSAD  CLASSFP MTFCC
##  * <chr>      <int> <chr>    <chr>    <chr> <chr>   <chr>    <chr> <chr>   <chr>
##  1 G0100010       1 001      00161526 01001 Autauga Autauga… 06    H1      G4020
##  2 G0100030       1 003      00161527 01003 Baldwin Baldwin… 06    H1      G4020
##  3 G0100050       1 005      00161528 01005 Barbour Barbour… 06    H1      G4020
##  4 G0100070       1 007      00161529 01007 Bibb    Bibb Co… 06    H1      G4020
##  5 G0100090       1 009      00161530 01009 Blount  Blount … 06    H1      G4020
##  6 G0100110       1 011      00161531 01011 Bullock Bullock… 06    H1      G4020
##  7 G0100130       1 013      00161532 01013 Butler  Butler … 06    H1      G4020
##  8 G0100150       1 015      00161533 01015 Calhoun Calhoun… 06    H1      G4020
##  9 G0100170       1 017      00161534 01017 Chambe… Chamber… 06    H1      G4020
## 10 G0100190       1 019      00161535 01019 Cherok… Cheroke… 06    H1      G4020
## # ℹ 3,098 more rows
## # ℹ 11 more variables: CSAFP <chr>, CBSAFP <chr>, METDIVFP <chr>,
## #   FUNCSTAT <chr>, ALAND <dbl>, AWATER <dbl>, INTPTLAT <chr>, INTPTLON <chr>,
## #   Shape_Leng <dbl>, Shape_Area <dbl>, geometry <MULTIPOLYGON [m]>
…
